"id","location_srs","location_x","location_y","operator","actively_saved","actively_saved_on_year","actively_saved_on_month","actively_saved_on_day","plot_file","geometry","change_type","change_type_qualifier","change_type_label"
"1572577","EPSG:4326","29.59859512937595","-17.56952815829528","Admore","true","2019","2","28","Harare_classified_changes_sub_02.csv","Polygon used in the placemark not included.","cant_tell",,"Can't tell"
"1623464","EPSG:4326","27.10252325581394","-18.03163436692506","Admore","true","2019","2","28","Harare_classified_changes_sub_02.csv","Polygon used in the placemark not included.","cant_tell",,"Can't tell"
"1550467","EPSG:4326","32.38858055555555","-16.746241666666684","Admore","true","2019","2","28","Harare_classified_changes_sub_02.csv","Polygon used in the placemark not included.","agriculture_small",,"Small-scale agriculture"
"1647364","EPSG:4326","29.389777777777788","-18.184478632478633","Admore","true","2019","2","28","Harare_classified_changes_sub_02.csv","Polygon used in the placemark not included.","agriculture_small",,"Small-scale agriculture"
"1635105","EPSG:4326","28.562666666666672","-18.07699555555555","Admore","true","2019","2","28","Harare_classified_changes_sub_02.csv","Polygon used in the placemark not included.","cant_tell",,"Can't tell"
"1620992","EPSG:4326","26.9652510288066","-18.512592592592586","Admore","true","2019","2","28","Harare_classified_changes_sub_02.csv","Polygon used in the placemark not included.","no_change",,"No change"
"1688070","EPSG:4326","32.14853703703705","-18.682638888888885","Admore","true","2019","2","28","Harare_classified_changes_sub_02.csv","Polygon used in the placemark not included.","cant_tell",,"Can't tell"
"1730345","EPSG:4326","30.502929824561413","-19.27629824561402","Admore","true","2019","2","28","Harare_classified_changes_sub_02.csv","Polygon used in the placemark not included.","cant_tell",,"Can't tell"
"1529471","EPSG:4326","30.152920634920644","-16.445492063492058","Admore","true","2019","2","28","Harare_classified_changes_sub_02.csv","Polygon used in the placemark not included.","no_change",,"No change"
"1534394","EPSG:4326","30.37918279569893","-16.813734767025085","Admore","true","2019","2","28","Harare_classified_changes_sub_02.csv","Polygon used in the placemark not included.","no_change",,"No change"
"1702910","EPSG:4326","28.66806896551724","-19.189057471264356","Admore","true","2019","2","28","Harare_classified_changes_sub_02.csv","Polygon used in the placemark not included.","cant_tell",,"Can't tell"
"1628883","EPSG:4326","27.00343543543543","-18.477756756756765","Admore","true","2019","2","28","Harare_classified_changes_sub_02.csv","Polygon used in the placemark not included.","agriculture_small",,"Small-scale agriculture"
"1818719","EPSG:4326","31.176960784313724","-21.083480392156876","Admore","true","2019","2","28","Harare_classified_changes_sub_02.csv","Polygon used in the placemark not included.","cant_tell",,"Can't tell"
"1774264","EPSG:4326","28.347007407407407","-20.66517777777777","Admore","true","2019","2","28","Harare_classified_changes_sub_02.csv","Polygon used in the placemark not included.","woodfuel",,"Woodfuel harvesting"
"1752656","EPSG:4326","32.268134171907754","-19.25077777777778","Admore","true","2019","2","28","Harare_classified_changes_sub_02.csv","Polygon used in the placemark not included.","cant_tell",,"Can't tell"
"1576316","EPSG:4326","29.407611476608203","-17.896816520467855","Admore","true","2019","2","28","Harare_classified_changes_sub_02.csv","Polygon used in the placemark not included.","cant_tell",,"Can't tell"
"1702750","EPSG:4326","28.271777777777768","-19.175359477124193","Admore","true","2019","2","28","Harare_classified_changes_sub_02.csv","Polygon used in the placemark not included.","cant_tell",,"Can't tell"
"1663332","EPSG:4326","30.839019323671504","-18.476169082125605","Admore","true","2019","2","28","Harare_classified_changes_sub_02.csv","Polygon used in the placemark not included.","agriculture_small",,"Small-scale agriculture"
"1616525","EPSG:4326","26.595948148148146","-18.171022222222213","Admore","true","2019","2","28","Harare_classified_changes_sub_02.csv","Polygon used in the placemark not included.","agriculture_small",,"Small-scale agriculture"
"1796629","EPSG:4326","31.21275925925925","-20.66848765432098","Admore","true","2019","2","28","Harare_classified_changes_sub_02.csv","Polygon used in the placemark not included.","no_change",,"No change"
"1534048","EPSG:4326","30.44824338624338","-16.786761904761885","Admore","true","2019","2","28","Harare_classified_changes_sub_02.csv","Polygon used in the placemark not included.","cant_tell",,"Can't tell"
"1796277","EPSG:4326","31.278411111111115","-20.63054444444444","Admore","true","2019","2","28","Harare_classified_changes_sub_02.csv","Polygon used in the placemark not included.","no_change",,"No change"
"1698768","EPSG:4326","27.858576506538856","-19.683971320631006","Admore","true","2019","2","28","Harare_classified_changes_sub_02.csv","Polygon used in the placemark not included.","cant_tell",,"Can't tell"
"1699310","EPSG:4326","27.85067676767677","-19.698535353535352","Admore","true","2019","2","28","Harare_classified_changes_sub_02.csv","Polygon used in the placemark not included.","cant_tell",,"Can't tell"
"1558410","EPSG:4326","28.806862115127185","-17.299882195448454","Admore","true","2019","2","28","Harare_classified_changes_sub_02.csv","Polygon used in the placemark not included.","agriculture_small",,"Small-scale agriculture"
"1542120","EPSG:4326","31.510152046783613","-16.685988304093573","Admore","true","2019","2","28","Harare_classified_changes_sub_02.csv","Polygon used in the placemark not included.","no_change",,"No change"
"1819819","EPSG:4326","31.34359131545341","-21.216692209450834","Admore","true","2019","2","28","Harare_classified_changes_sub_02.csv","Polygon used in the placemark not included.","agriculture_small",,"Small-scale agriculture"
"1550235","EPSG:4326","32.83453061224491","-16.72633106575964","Admore","true","2019","2","28","Harare_classified_changes_sub_02.csv","Polygon used in the placemark not included.","agriculture_small",,"Small-scale agriculture"
"1780169","EPSG:4326","29.970929824561416","-20.513304093567267","Admore","true","2019","2","28","Harare_classified_changes_sub_02.csv","Polygon used in the placemark not included.","agriculture_small",,"Small-scale agriculture"
"1807383","EPSG:4326","32.171581395348824","-20.621264857881137","Admore","true","2019","2","28","Harare_classified_changes_sub_02.csv","Polygon used in the placemark not included.","no_change",,"No change"
"1656750","EPSG:4326","29.75715151515149","-18.944861952861938","Admore","true","2019","2","28","Harare_classified_changes_sub_02.csv","Polygon used in the placemark not included.","no_change",,"No change"
"1681336","EPSG:4326","32.613236467236476","-18.13945868945868","Admore","true","2019","2","28","Harare_classified_changes_sub_02.csv","Polygon used in the placemark not included.","no_change",,"No change"
"1599049","EPSG:4326","31.210251851851847","-17.54125925925926","Admore","true","2019","2","28","Harare_classified_changes_sub_02.csv","Polygon used in the placemark not included.","agriculture_small",,"Small-scale agriculture"
"1551307","EPSG:4326","32.2366126687435","-16.80642159916926","Admore","true","2019","2","28","Harare_classified_changes_sub_02.csv","Polygon used in the placemark not included.","agriculture_small",,"Small-scale agriculture"
"1727562","EPSG:4326","30.078272401433683","-19.121806451612905","Admore","true","2019","2","28","Harare_classified_changes_sub_02.csv","Polygon used in the placemark not included.","cant_tell",,"Can't tell"
"1784040","EPSG:4326","30.94636641975308","-20.168596543209887","Admore","true","2019","2","28","Harare_classified_changes_sub_02.csv","Polygon used in the placemark not included.","no_change",,"No change"
"1723132","EPSG:4326","29.228308196721294","-19.754086703096547","Admore","true","2019","2","28","Harare_classified_changes_sub_02.csv","Polygon used in the placemark not included.","cant_tell",,"Can't tell"
"1695314","EPSG:4326","27.586424836601303","-19.362929738562084","Admore","true","2019","2","28","Harare_classified_changes_sub_02.csv","Polygon used in the placemark not included.","cant_tell",,"Can't tell"
"1682496","EPSG:4326","32.75322222222222","-18.215763888888894","Admore","true","2019","2","28","Harare_classified_changes_sub_02.csv","Polygon used in the placemark not included.","no_change",,"No change"
"1805882","EPSG:4326","32.553350427350395","-20.456706552706553","Admore","true","2019","2","28","Harare_classified_changes_sub_02.csv","Polygon used in the placemark not included.","agriculture_small",,"Small-scale agriculture"
"1666829","EPSG:4326","30.17382905982906","-18.776803418803418","Admore","true","2019","2","28","Harare_classified_changes_sub_02.csv","Polygon used in the placemark not included.","no_change",,"No change"
"1716867","EPSG:4326","29.1570534979424","-19.325876543209883","Admore","true","2019","2","28","Harare_classified_changes_sub_02.csv","Polygon used in the placemark not included.","agriculture_small",,"Small-scale agriculture"
"1592762","EPSG:4326","31.08106779661015","-17.16953483992467","Admore","true","2019","2","28","Harare_classified_changes_sub_02.csv","Polygon used in the placemark not included.","woodfuel",,"Woodfuel harvesting"
"1679795","EPSG:4326","31.75832098765433","-18.998716049382704","Admore","true","2019","2","28","Harare_classified_changes_sub_02.csv","Polygon used in the placemark not included.","woodfuel",,"Woodfuel harvesting"
"1813964","EPSG:4326","29.862385964912285","-21.364619883040934","Admore","true","2019","2","28","Harare_classified_changes_sub_02.csv","Polygon used in the placemark not included.","cant_tell",,"Can't tell"
"1799192","EPSG:4326","31.01996382428942","-20.905467700258388","Admore","true","2019","2","28","Harare_classified_changes_sub_02.csv","Polygon used in the placemark not included.","woodfuel",,"Woodfuel harvesting"
"1539101","EPSG:4326","31.858797979797988","-16.410545454545456","Admore","true","2019","2","28","Harare_classified_changes_sub_02.csv","Polygon used in the placemark not included.","woodfuel",,"Woodfuel harvesting"
"1561107","EPSG:4326","28.715903703703695","-17.563466666666663","Admore","true","2019","2","28","Harare_classified_changes_sub_02.csv","Polygon used in the placemark not included.","agriculture_small",,"Small-scale agriculture"
"1542490","EPSG:4326","31.485366666666682","-16.712088888888882","Admore","true","2019","2","28","Harare_classified_changes_sub_02.csv","Polygon used in the placemark not included.","cant_tell",,"Can't tell"
