id,location_srs,location_x,location_y,operator,actively_saved,actively_saved_on_year,actively_saved_on_month,actively_saved_on_day,plot_file,geometry,change_type,change_type_qualifier,change_type_label
1591872,EPSG:4326,31.50248889,-17.12038889,Robert Mwase,TRUE,2019,2,28,Harare_classified_changes_sub_09.csv,Polygon used in the placemark not included.,woodfuel,,Woodfuel harvesting
1529815,EPSG:4326,30.20675556,-16.46537778,Robert Mwase,TRUE,2019,2,28,Harare_classified_changes_sub_09.csv,Polygon used in the placemark not included.,no_change,,No change
1568761,EPSG:4326,29.30817778,-17.27635556,Robert Mwase,TRUE,2019,2,28,Harare_classified_changes_sub_09.csv,Polygon used in the placemark not included.,cant_tell,,Can't tell
1706066,EPSG:4326,28.66966468,-19.43020635,Robert Mwase,TRUE,2019,2,28,Harare_classified_changes_sub_09.csv,Polygon used in the placemark not included.,cant_tell,,Can't tell
1781808,EPSG:4326,29.49726984,-20.80446561,Robert Mwase,TRUE,2019,2,28,Harare_classified_changes_sub_09.csv,Polygon used in the placemark not included.,no_change,,No change
1754499,EPSG:4326,32.37499074,-19.45650463,Robert Mwase,TRUE,2019,2,28,Harare_classified_changes_sub_09.csv,Polygon used in the placemark not included.,no_change,,No change
1796527,EPSG:4326,31.80741942,-20.66322122,Robert Mwase,TRUE,2019,2,28,Harare_classified_changes_sub_09.csv,Polygon used in the placemark not included.,agriculture_small,,Small-scale agriculture
1755243,EPSG:4326,32.20471605,-19.51119342,Robert Mwase,TRUE,2019,2,28,Harare_classified_changes_sub_09.csv,Polygon used in the placemark not included.,cant_tell,,Can't tell
1561699,EPSG:4326,28.72346882,-17.65021995,Robert Mwase,TRUE,2019,2,28,Harare_classified_changes_sub_09.csv,Polygon used in the placemark not included.,agriculture_small,,Small-scale agriculture
1579730,EPSG:4326,30.14871642,-17.1325141,Robert Mwase,TRUE,2019,2,28,Harare_classified_changes_sub_09.csv,Polygon used in the placemark not included.,agriculture_small,,Small-scale agriculture
1659390,EPSG:4326,30.14625996,-18.13790356,Robert Mwase,TRUE,2019,2,28,Harare_classified_changes_sub_09.csv,Polygon used in the placemark not included.,settlements,,Settlements
1595897,EPSG:4326,31.6624307,-17.3501512,Robert Mwase,TRUE,2019,2,28,Harare_classified_changes_sub_09.csv,Polygon used in the placemark not included.,agriculture_small,,Small-scale agriculture
1598716,EPSG:4326,31.75466667,-17.51841344,Robert Mwase,TRUE,2019,2,28,Harare_classified_changes_sub_09.csv,Polygon used in the placemark not included.,woodfuel,,Woodfuel harvesting
1672967,EPSG:4326,31.60827375,-18.25662158,Robert Mwase,TRUE,2019,2,28,Harare_classified_changes_sub_09.csv,Polygon used in the placemark not included.,multiple,,Multiple causes
1762763,EPSG:4326,32.51296241,-19.95748538,Robert Mwase,TRUE,2019,2,28,Harare_classified_changes_sub_09.csv,Polygon used in the placemark not included.,agriculture_small,,Small-scale agriculture
1670198,EPSG:4326,31.53126362,-18.01875817,Robert Mwase,TRUE,2019,2,28,Harare_classified_changes_sub_09.csv,Polygon used in the placemark not included.,no_change,,No change
1724104,EPSG:4326,29.92246061,-19.86239596,Robert Mwase,TRUE,2019,2,28,Harare_classified_changes_sub_09.csv,Polygon used in the placemark not included.,agriculture_small,,Small-scale agriculture
1813374,EPSG:4326,29.78482667,-21.29779556,Robert Mwase,TRUE,2019,2,28,Harare_classified_changes_sub_09.csv,Polygon used in the placemark not included.,no_change,,No change
1687431,EPSG:4326,32.25345422,-18.62859378,Robert Mwase,TRUE,2019,2,28,Harare_classified_changes_sub_09.csv,Polygon used in the placemark not included.,no_change,,No change
1708754,EPSG:4326,28.92981778,-19.6584,Robert Mwase,TRUE,2019,2,28,Harare_classified_changes_sub_09.csv,Polygon used in the placemark not included.,cant_tell,,Can't tell
1557571,EPSG:4326,28.54979259,-17.20743704,Robert Mwase,TRUE,2019,2,28,Harare_classified_changes_sub_09.csv,Polygon used in the placemark not included.,no_change,,No change
1698768,EPSG:4326,27.85857651,-19.68397132,Robert Mwase,TRUE,2019,2,28,Harare_classified_changes_sub_09.csv,Polygon used in the placemark not included.,no_change,,No change
